[
    {
        "name": "rock",
        "url": "assets/batu.png"
    },
    
    {
        "name": "paper",
        "url": "assets/kertas.png"
    },

    {
        "name": "scissors",
        "url": "assets/gunting.png"
    }

]
